All-Time Video Game Statistics
…
# Step 1: Keep only unique rows per game-genre pair
unique_genre_wishlist <- final_data %>%
  select(id, genre, wishlists) %>%
  distinct(id, genre, .keep_all = TRUE)

# Step 2: Summarize total wishlists per genre
genre_wishlist_summary <- unique_genre_wishlist %>%
  group_by(genre) %>%
  summarise(total_wishlists = sum(wishlists, na.rm = TRUE)) %>%
  arrange(desc(total_wishlists))

# Step 3: Print summary
print(genre_wishlist_summary)

# A tibble: 23 × 2
   genre               total_wishlists
   <chr>                         <dbl>
 1 Adventure                   2578066
 2 RPG                         1458065
 3 Indie                        962595
 4 Shooter                      761335
 5 Platform                     665188
 6 Puzzle                       614949
 7 Brawler                      396359
 8 Strategy                     374641
 9 Simulator                    366933
10 Turn Based Strategy          214250
# ℹ 13 more rows
…
